[
  {
    "last_update": "2007-07-29",
    "currency": [
      {
        "name": "dollar",
        "unit": 1,
        "currencycode": "UDA",
        "country": "United States",
        "rate": "4.527",
        "change": "0.044"
      },
      {
        "name": "euro",
        "unit": 1,
        "currencycode": "EUR",
        "country": "France",
        "rate": "5.4417",
        "change": "-0.013"
      }
    ]
  }
]